#Configuration:
    CALCULUS_METHOD:    1               # 0: basic, 1: jerk, 2:basic_Schwarzschild, 3: jerk_Schwarzschild
    SIMULATION_STEPS:   288000000
    STEPS_PER_PLOT:     240             # 4h
    STEP_TIME:          60              # Seconds
    START_EPOCH_TIME:   1577836800      # Epoc of 2020-Jan-01 00:00:00.0000 TDB.
    METERS_PER_PIXEL:   1.0e-10         # UNIX Epoch time is the number of seconds that have elapsed since 
                                        # 00:00:00 Coordinated Universal Time (UTC), Thursday, 1 January 1970. 
                                        # [https://en.wikipedia.org/wiki/Unix_time]
    MAX_ORBIT_POINTS:   50000           # Avoid hard graphic computing, try to use less than 10000
    SCREEN_PERCENT:     50              # Size of screen in % 
    SCREEN_RESIZABLE:   true            # true or false
    COLOR_SCREEN:       21,21,21        # Screen color in R,G,B
    COLOR_DATE:         255,0,0         # Screen color in R,G,B
    COLOR_SCALE:        0,255,0         # Screen color in R,G,B
    COLOR_ANGLE:        102,255,255     # Screen color in R,G,B
#   SYSTEM_SPEED_X:     0               # System speed x in (km/s)
#   SYSTEM_SPEED_Y:     0               # System speed y in (km/s)
#   SYSTEM_SPEED_Z:     -200            # System speed z in (km/s)
    

#   Name,    mass (Kg),   radio(m),               x0 (km) ,               y0 (km) ,                z0 (km),             vx0 (km/s),             vy0 (km/s),             vz0 (km/s),   R,   G,   B
SUN             ,  1.98847449235295491E+30,  6.95700000000000000E+08, -5.68265384109288454E+05,  1.11299716552859265E+06,  3.44525667551759443E+03, -1.44615364385537633E-02, -3.44750713043086732E-03,  3.98861199759555606E-04, 255, 255, 255
MERCURY         ,  3.30109464774269867E+23,  2.44000000000000000E+06, -1.00430279334612228E+07, -6.78284824728548527E+07, -4.76088963316262979E+06,  3.84726515559292679E+01, -4.15868954698120685E+00, -3.86976364780449877E+00, 255, 255, 255
VENUS           ,  4.86746399666494982E+24,  6.05184000000000000E+06,  1.07620959580556422E+08,  8.97412281803649105E+06, -6.13197666192906909E+06, -2.69348508425955036E+00,  3.47665046201428964E+01,  6.32091227146727164E-01, 255, 255, 255
EARTH           ,  5.97236248730555864E+24,  6.37101000000000000E+06, -2.54532370827382505E+07,  1.46091344286810935E+08, -2.72652790376543999E+03, -2.98633820023530703E+01, -5.16582224670029433E+00,  1.13552686025775174E-03, 255, 255, 255
MOON            ,  7.34602790007214514E+22,  1.73753000000000000E+06, -2.50630514441720694E+07,  1.45993003524004817E+08, -3.71761894863322377E+04, -2.96146542784480147E+01, -4.23008504992897727E+00, -3.39057660635881872E-02, 255, 255, 255
MARS            ,  6.41711746352094309E+23,  3.38992000000000000E+06, -1.98053552217006505E+08, -1.31394433406065434E+08,  2.07224559499023808E+06,  1.43927392935966640E+01, -1.80500407428963925E+01, -7.31248597961486446E-01, 255, 255, 255
Ceres           ,  9.38382082776284135E+20,  4.69700000000000000E+05,  1.50167867198713273E+08, -4.06201589093180120E+08, -4.06104862727541104E+07,  1.59179273191137263E+01,  5.15436167614374163E+00, -2.77369618766157222E+00, 255, 255, 255
JUPITER         ,  1.89818635777849371E+27,  6.99110000000000000E+07,  7.81422142282092869E+07, -7.76948895731303334E+08,  1.47406819922035956E+06,  1.28393103515117186E+01,  1.93035705442166239E+00, -2.95259965257962054E-01, 255, 255, 255
SATURN          ,  5.68335838656249212E+26,  5.82320000000000000E+07,  5.67491480947334290E+08, -1.38836646301873803E+09,  1.54926578345787548E+06,  8.40649353120013743E+00,  3.62777483946403256E+00, -3.98365134179721192E-01, 255, 255, 255
URANUS          ,  8.68126937466511234E+25,  2.53620000000000000E+07,  2.42673153227631092E+09,  1.70339250403289318E+09, -2.51121508417361975E+07, -3.96235158421971834E+00,  5.25652342127215899E+00,  7.09516747753800026E-02, 255, 255, 255
NEPTUNE         ,  1.02412562109093295E+26,  2.46240000000000000E+07,  4.37409424239634609E+09, -9.51405117573317409E+08, -8.12130417351080775E+07,  1.11882246657505147E+00,  5.34264511848143364E+00, -1.36260316638249918E-01, 255, 255, 255
PLUTO           ,  1.30255956511839035E+22,  1.18830000000000000E+06,  1.94071994857368565E+09, -4.69179790776738167E+09, -5.93211560665638447E+07,  5.13939645255267141E+00,  9.27504852193127616E-01, -1.56466722781546363E+00, 255, 255, 255
CHARON          ,  1.53236030279575011E+21,  6.05000000000000000E+05,  1.94073333890168548E+09, -4.69178360938214588E+09, -5.93215800754532740E+07,  5.19973723039812974E+00,  8.64895134540035526E-01, -1.77018254144315201E+00, 255, 255, 255
1999_KW4        ,  1.00000000000000000E+00,  6.58500000000000000E+02, -3.99538258861535043E+07, -1.54294467491112173E+08,  2.43913262177533396E+07,  1.27220850242882335E+01, -9.35282656429831882E-01,  9.62130326809122671E+00, 95, 179, 126
Makemake (2005 FY9),  1.00000000000000000E+00,  1.00000000000000000E+00, -6.91000866054558468E+09, -6.47188398214421988E+08,  3.70000912541970396E+09, -1.79806453716287694E-02, -3.75899818426724508E+00, -3.72023111707004084E-01, 71, 152, 194
Eris (2003 UB313),  1.00000000000000000E+00,  1.00000000000000000E+00,  1.28915307032202148E+10,  5.61689056938626862E+09, -2.92304764686757565E+09, -7.06165189719163644E-01,  1.53423742084087089E+00,  1.59920896406588398E+00, 79, 134, 196
Bennu (1999 RQ36),  7.79133241538451866E+19,  2.46000000000000000E+02,  1.49392391589701623E+08, -5.85529527693984210E+07, -6.85528044174369052E+06,  5.21734372380881606E+00,  2.86108835823779124E+01,  3.00386792980245776E+00, 247, 254, 255
Voyager 1 (spacecraft),  1.00000000000000000E+00,  1.00000000000000000E+00, -4.37224022213601875E+09, -1.75673755892908974E+10,  1.27128405118376236E+10, -2.06986567779495445E+00, -1.36465218499477476E+01,  9.86004576900117513E+00, 187, 71, 137
Voyager 2 (spacecraft),  1.00000000000000000E+00,  1.00000000000000000E+00,  5.06781281633740139E+09, -1.37843128960435352E+10, -1.10049788147484188E+10,  4.23404012179734224E+00, -9.38908648743188934E+00, -1.13607851548390499E+01, 110, 123, 189
1P/Halley       ,  1.00000000000000000E+00,  5.50000000000000000E+03, -3.03850715460122252E+09,  3.97847461314798689E+09, -1.49168811820938516E+09,  3.75998202193426501E-01,  1.00587503665352385E+00, -6.36839416971206329E-02, 79, 139, 126
Hale-Bopp (C/1995 O1),  1.00000000000000000E+00,  1.00000000000000000E+00, -5.60679045393387079E+08,  6.16037895112413788E+09, -3.50143340478523636E+09,  3.58187227801234576E-01,  4.97070660621992477E+00, -3.52634195791316474E+00, 178, 181, 108
67P (Rosetta)   ,  1.00000000000000000E+00,  2.00000000000000000E+03, -1.00609724484947965E+08, -7.29370798284224987E+08, -3.56103033927304745E+07,  9.12531860952302409E+00,  4.33016369092317266E+00, -1.43452984742757056E-01, 131, 105, 170
ATLAS           ,  1.00000000000000000E+00,  1.00000000000000000E+00, -3.24681867858883023E+08,  2.35889663289258450E+08,  1.61805440024878323E+08,  1.59187515450871917E+01, -1.84106483017576465E+01, -4.41545045979559347E+00, 143, 197, 66
Tesla Roadster (AKA Starman, 2018-017A),  1.00000000000000000E+00,  1.00000000000000000E+00, -6.36415029658387825E+07, -1.99681214024180442E+08, -3.56994461239898298E+06,  2.06445675886644331E+01, -1.28324078197606752E+01,  8.82325144365818659E-02, 138, 147, 116
Oumuamua        ,  1.00000000000000000E+00,  1.00000000000000000E+00,  2.14305148700702024E+09,  3.92193511651929855E+08,  8.34870611123930931E+08,  2.58588704372775275E+01,  3.87981084975429447E+00,  1.12696189122800341E+01, 191, 68, 172
Borisov_c_q4    ,  1.00000000000000000E+00,  1.00000000000000000E+00, -2.59808876349586666E+08,  7.27887144598980844E+07, -1.54401863930284709E+08, -6.06301252315116734E+00, -3.48533457532613582E+01, -2.54278321446597637E+01, 105, 175, 150
Ka`epaoka`awela ,  1.00000000000000000E+00,  1.00000000000000000E+00, -1.45673257117199481E+08, -9.44590547423649192E+08,  2.10374323046455443E+08, -9.58596177358868395E+00, -7.59202130423126786E-01,  2.43804455369391659E+00, 171, 149, 199
# from: [https://ssd.jpl.nasa.gov/?horizons] 
